﻿using System;
using System.Collections.Generic;
using SimpleJSON;

namespace UBeau.Serialization
{
    public sealed partial class DataSerializer
    {
        #region Reading and Writing Routines

        // Reads the $(type) value from the current node.
        private bool Read(ref $(type) ioData, $(type) inDefault)
        {
            if (MissingNode)
            {
                if (inDefault != null)
				{
                    ioData = inDefault;
					return true;
				}
                else
                    return false;
            }
            else if (NullNode)
            {
                if (inDefault != null)
                    ioData = inDefault;
                else
                    ioData = default($(type));
                return true;
            }

            ioData = ($(type))Node.$(jsonProperty);
            return true;
        }

        // Writes the $(type) value to the current node.
        private bool Write(string inKey, ref $(type) ioData, $(type) inDefault)
        {
            if (inDefault == null || ioData != inDefault)
            {
                AddPushNode(inKey, new JSONData(ioData));
                PopNode();
            }
            else
            {
                if (string.IsNullOrEmpty(inKey))
                    WriteNull();
            }
            return true;
        }

        #endregion

        /// <summary>
        /// Serializes a $(type) value.
        /// </summary>
        public bool Serialize(string inKey, ref $(type) ioData, $(type) inDefault = null)
        {
            if (IsReading)
            {
                bool bSuccess = true;

                PushNodeKey(inKey);
                {
                    bSuccess = Read(ref ioData, inDefault);
                }
                PopNode();

                if (!bSuccess)
                    Log.Warn("Unable to read $(type) value at '{0}'.", inKey);

                return bSuccess;
            }

            return Write(inKey, ref ioData, inDefault);
        }

        /// <summary>
        /// Serializes a $(type) list.
        /// </summary>
        public bool Array(string inKey, ref List<$(type)> ioArray)
        {
            if (IsReading)
            {
                bool bSuccess = true;

                PushNodeKey(inKey);
                {
                    if (MissingNode)
                    {
                        bSuccess = false;
                    }
                    else if (NullNode)
                    {
                        if (ioArray != null)
                            ioArray.Clear();
                        ioArray = null;
                    }
                    else
                    {
                        if (ioArray == null)
                            ioArray = new List<$(type)>(Node.AsArray.Count);
						else
							ioArray.Clear();

                        foreach (var node in Node.AsArray)
                        {
                            PushNode(node);
                            {
                                $(type) part = default($(type));
                                bSuccess &= Read(ref part, null);
                                ioArray.Add(part);
                            }
                            PopNode();
                        }
                    }
                }
                PopNode();

                if (!bSuccess)
                    Log.Warn("Unable to read $(type) array at '{0}'.", inKey);

                return bSuccess;
            }

            if (ioArray != null)
            {
                AddPushNode(inKey, new JSONArray());
                for (int i = 0; i < ioArray.Count; ++i)
                {
                    $(type) obj = ioArray[i];
                    Write(null, ref obj, null);
                }
                PopNode();
            }
            else
            {
                WriteNull(inKey);
            }

            return true;
        }

        /// <summary>
        /// Serializes a $(type) array.
        /// </summary>
        public bool Array(string inKey, ref $(type)[] ioArray)
        {
            if (IsReading)
            {
                bool bSuccess = true;

                PushNodeKey(inKey);
                {
                    if (MissingNode)
                    {
                        bSuccess = false;
                    }
                    else if (NullNode)
                    {
                        ioArray = null;
                    }
                    else
                    {
                        int maxIndex;
                        if (ioArray == null)
                            ioArray = new $(type)[maxIndex = Node.Count];
                        else
                        {
                            maxIndex = Math.Max(Node.Count, ioArray.Length);
                            if (maxIndex > ioArray.Length)
                                System.Array.Resize(ref ioArray, maxIndex);
                        }

                        for (int i = 0; i < maxIndex; ++i)
                        {
                            PushNode(Node[i]);
                            Read(ref ioArray[i], null);
                            PopNode();
                        }
                        for (int i = maxIndex; i < ioArray.Length; ++i)
                        {
                            ioArray[i] = default($(type));
                        }
                    }
                }
                PopNode();

                if (!bSuccess)
                    Log.Warn("Unable to read $(type) array at '{0}'.", inKey);

                return bSuccess;
            }

            if (ioArray != null)
            {
                AddPushNode(inKey, new JSONArray());
                for (int i = 0; i < ioArray.Length; ++i)
                {
                    $(type) obj = ioArray[i];
                    Write(null, ref obj, null);
                }
                PopNode();
            }
            else
            {
                WriteNull(inKey);
            }

            return true;
        }

        /// <summary>
        /// Serializes a string/$(type) dictionary.
        /// </summary>
        public bool Map(string inKey, ref Dictionary<string, $(type)> ioMap)
        {
            if (IsReading)
            {
                bool bSuccess = true;

                PushNodeKey(inKey);
                {
                    if (MissingNode)
                    {
                        bSuccess = false;
                    }
                    else if (NullNode)
                    {
                        if (ioMap != null)
                            ioMap.Clear();
                        ioMap = null;
                    }
                    else
                    {
                        if (ioMap == null)
                            ioMap = new Dictionary<string, $(type)>(Node.AsObject.Count);
                        else
                            ioMap.Clear();

                        foreach (var keyValue in Node.AsObject)
                        {
                            string key = keyValue.Key;
                            PushNode(keyValue.Value);
                            {
                                $(type) part = default($(type));
                                bSuccess &= Read(ref part, null);
                                ioMap.Add(key, part);
                            }
                            PopNode();
                        }
                    }
                }
                PopNode();

                if (!bSuccess)
                    Log.Warn("Unable to read $(type) map at '{0}'.", inKey);

                return bSuccess;
            }

            if (ioMap != null)
            {
                AddPushNode(inKey, new JSONClass());
                foreach (var keyValue in ioMap)
                {
                    $(type) obj = keyValue.Value;
                    Write(keyValue.Key, ref obj, null);
                }
                PopNode();
            }
            else
            {
                WriteNull(inKey);
            }

            return true;
        }
    }
}
